%YAML 1.1
%TAG !u! tag:unity3d.com,2011:
--- !u!114 &11400000
MonoBehaviour:
  m_ObjectHideFlags: 0
  m_CorrespondingSourceObject: {fileID: 0}
  m_PrefabInstance: {fileID: 0}
  m_PrefabAsset: {fileID: 0}
  m_GameObject: {fileID: 0}
  m_Enabled: 1
  m_EditorHideFlags: 0
  m_Script: {fileID: 11500000, guid: fed572148c4ffb74dac6c9c1e62b1b82, type: 3}
  m_Name: Pants
  m_EditorClassIdentifier: 
  name: Pants
  icon: {fileID: 0}
  isDefaultItem: 1
  equipSlot: 2
  mesh: {fileID: 1353146924745253233, guid: 4d1be6cee104fff4995fb3817f530a85, type: 3}
  coveredMeshRegions: 00000000
  armourModifier: 0
  damageModifier: 0
