%YAML 1.1
%TAG !u! tag:unity3d.com,2011:
--- !u!114 &11400000
MonoBehaviour:
  m_ObjectHideFlags: 0
  m_CorrespondingSourceObject: {fileID: 0}
  m_PrefabInstance: {fileID: 0}
  m_PrefabAsset: {fileID: 0}
  m_GameObject: {fileID: 0}
  m_Enabled: 1
  m_EditorHideFlags: 0
  m_Script: {fileID: 11500000, guid: fed572148c4ffb74dac6c9c1e62b1b82, type: 3}
  m_Name: Sword
  m_EditorClassIdentifier: 
  name: Sword
  icon: {fileID: 21300000, guid: e45aad85d15b01645a3a64aec619d213, type: 3}
  isDefaultItem: 0
  equipSlot: 4
  mesh: {fileID: -3627798394845846108, guid: fa82f89c1bf491744b1d065215a8c463, type: 3}
  coveredMeshRegions: 01000000
  armourModifier: 0
  damageModifier: 10
